id,artist,title,artwork,length,pos_7-3-2019
Artik & Asti feat. Артем Качер-Грустный дэнс,Artik & Asti feat. Артем Качер,Грустный дэнс,https://pp.userapi.com/c845124/v845124800/1a20f0/om5XZpuL-bk.jpg,217,1
Тима Белорусских-Витаминка,Тима Белорусских,Витаминка,https://sun9-9.userapi.com/c850636/v850636822/9b76c/UHRSLoYXvYI.jpg,176,2
HammAli & Navai-Девочка-война,HammAli & Navai,Девочка-война,https://pp.userapi.com/c844416/v844416646/1aff49/qBWBNrADSac.jpg,194,3
"Raim, Artur, Adil-Симпа","Raim, Artur, Adil",Симпа,https://pp.userapi.com/c848532/v848532919/13e07f/lYcdBk0MwB0.jpg,151,4
FACE-ЮМОРИСТ ,FACE,ЮМОРИСТ ,https://pp.userapi.com/c845122/v845122942/19f2fe/AbTKLGQcy50.jpg,143,5
DAVA-Кислород,DAVA,Кислород,https://pp.userapi.com/c849324/v849324881/145a56/aV0W8FmkkGw.jpg,211,6
GAYAZOV$ BROTHER$-До встречи на танцполе,GAYAZOV$ BROTHER$,До встречи на танцполе,https://pp.userapi.com/c850228/v850228754/d3b38/_r-05p71icU.jpg,205,7
LIRANOV-Гюрза,LIRANOV,Гюрза,https://pp.userapi.com/c852036/v852036965/61910/2JXG66VEL88.jpg,213,8
Zivert-Life,Zivert,Life,https://pp.userapi.com/c831108/v831108007/1d147f/3lrCo5d1VoE.jpg,188,9
Тима Белорусских-Я больше не напишу,Тима Белорусских,Я больше не напишу,https://sun9-9.userapi.com/c850636/v850636822/9b76c/UHRSLoYXvYI.jpg,191,10
Andro-Инопланетянин,Andro,Инопланетянин,https://pp.userapi.com/c848416/v848416103/119f51/Uw0UEjAcRIg.jpg,195,11
FACE-МОЙ КАЛАШНИКОВ,FACE,МОЙ КАЛАШНИКОВ,https://pp.userapi.com/c845218/v845218888/182681/Al6XrhpJYn0.jpg,148,12
"T1One, Inur-Почему так больно","T1One, Inur",Почему так больно,https://pp.userapi.com/c851336/v851336399/470fe/zIT83dpMHgQ.jpg,187,13
V $ X V PRiNCE-На лету,V $ X V PRiNCE,На лету,https://pp.userapi.com/c850636/v850636992/4c374/hoRZv03vlBA.jpg,201,14
Тима Белорусских-Незабудка,Тима Белорусских,Незабудка,https://pp.userapi.com/c847019/v847019740/10ed70/Uxq8X31szn0.jpg,184,15
Леша Свик-Стерва,Леша Свик,Стерва,https://pp.userapi.com/c851216/v851216811/9ee3d/phD8Oywi68k.jpg,168,16
"Ramil', Ханза-Айбала","Ramil', Ханза",Айбала,https://pp.userapi.com/c844416/v844416034/1935a8/flW-6NGCY4g.jpg,192,17
#2Маши-Мама я танцую,#2Маши,Мама я танцую,https://pp.userapi.com/c845019/v845019563/13be13/Sq40EoNvKDw.jpg,252,18
IVAN VALEEV-Седая ночь,IVAN VALEEV,Седая ночь,https://pp.userapi.com/c852320/v852320051/b8880/UtpsMyqIZs4.jpg,200,19
Нурминский-Уйду с мыслями,Нурминский,Уйду с мыслями,https://pp.userapi.com/c845322/v845322524/1b2730/ZGsbxDrIGF0.jpg,181,20
МУККА-ДЕВОЧКА С КАРЕ,МУККА,ДЕВОЧКА С КАРЕ,https://pp.userapi.com/c844616/v844616215/1ac16f/DeT2sEG_ZlA.jpg,159,21
Cali-Взять взять,Cali,Взять взять,https://pp.userapi.com/c849032/v849032986/dbd82/D2a5PqWjeBw.jpg,218,22
Мальбэк х Сюзанна-Высота,Мальбэк х Сюзанна,Высота,https://pp.userapi.com/c846416/v846416528/19ef38/YsQGDM4uLYg.jpg,203,23
"Deesmi, Onlife-Влюбился в неё","Deesmi, Onlife",Влюбился в неё,https://pp.userapi.com/c845523/v845523922/193755/kEgLYj5y6jU.jpg,236,24
Зомб-На балконе,Зомб,На балконе,https://sun9-4.userapi.com/c844618/v844618465/1b959d/LSpnW--2hSo.jpg,217,25
LIZER-Корабли,LIZER,Корабли,https://pp.userapi.com/c851236/v851236057/6e21d/GyPW1wY9_Kk.jpg,175,26
Ramil'-Хочешь со мной,Ramil',Хочешь со мной,https://pp.userapi.com/c850136/v850136195/c2a14/rZevNQYHGgg.jpg,174,27
Егор Крид-Время не пришло,Егор Крид,Время не пришло,https://pp.userapi.com/c851032/v851032712/b2455/ePhHin15FqA.jpg,196,28
Тима Белорусских-Мокрые кроссы,Тима Белорусских,Мокрые кроссы,https://pp.userapi.com/c844416/v844416331/e1fbc/HlOhBqt35V4.jpg,197,29
Zivert-Зелёные волны,Zivert,Зелёные волны,https://pp.userapi.com/c845124/v845124633/133b64/pS8goMW4yck.jpg,223,30
Rauf & Faik-Детство,Rauf & Faik,Детство,https://pp.userapi.com/c849228/v849228123/84d5a/bEdHkE_krok.jpg,188,31
Strange-Зависай,Strange,Зависай,https://pp.userapi.com/c846324/v846324894/15d76b/qqIiybIadfw.jpg,202,32
KAZKA-ПЛАКАЛА,KAZKA,ПЛАКАЛА,https://pp.userapi.com/c849024/v849024582/de2fb/9EiTzfxLPIg.jpg,225,33
JONY-Звезда,JONY,Звезда,https://pp.userapi.com/c849236/v849236910/103919/7wcM5bhK1jQ.jpg,160,34
Maruv-Siren Song,Maruv,Siren Song,https://pp.userapi.com/c849232/v849232426/12a432/Oq-BMdmVY_E.jpg,171,35
Big Baby Tape-Gimme The Loot,Big Baby Tape,Gimme The Loot,https://sun9-34.userapi.com/c849228/v849228340/c2ddd/uB29IJoxCHY.jpg,140,36
Тима Белорусских-Мальчик бабл-гам,Тима Белорусских,Мальчик бабл-гам,https://sun9-9.userapi.com/c850636/v850636822/9b76c/UHRSLoYXvYI.jpg,180,37
Звонкий-Голоса,Звонкий,Голоса,https://pp.userapi.com/c848736/v848736331/978bf/w0HLJhTRtsQ.jpg,206,38
Ariana Grande-7 rings,Ariana Grande,7 rings,https://pp.userapi.com/c849132/v849132808/1232c9/YlOz8xl3cYo.jpg,178,39
GAYAZOV$ BROTHER$-Кредо,GAYAZOV$ BROTHER$,Кредо,https://pp.userapi.com/c846524/v846524638/102590/qw1z5duB19Y.jpg,202,40
Tenca-Лев,Tenca,Лев,https://pp.userapi.com/c850536/v850536074/7a334/eZKNacZnMSY.jpg,186,41
Дима Билан-Молния,Дима Билан,Молния,https://pp.userapi.com/c851436/v851436543/379f3/CapYtZkEICY.jpg,181,42
"Гуф, Мари Краймбрери-31 февраля","Гуф, Мари Краймбрери",31 февраля,https://sun9-20.userapi.com/c847218/v847218663/198557/bG2zYpqjlfw.jpg,217,43
Миша Марвин-Под окнами,Миша Марвин,Под окнами,https://pp.userapi.com/c845021/v845021793/1af209/w9M--eurc0g.jpg,224,44
Kagramanov-Танцуй пантера,Kagramanov,Танцуй пантера,https://pp.userapi.com/c851536/v851536114/c1d7c/lQPXZVj2bdo.jpg,103,45
Ганвест-Никотин,Ганвест,Никотин,https://pp.userapi.com/c824500/v824500799/19ba73/PlP-yj36Ywg.jpg,207,46
"LXE, Kavabanga Depo Kolibri-Дикий кайф","LXE, Kavabanga Depo Kolibri",Дикий кайф,https://pp.userapi.com/c846217/v846217178/1aec00/P4BRXfA8U-Y.jpg,233,47
XXXTENTACION-Moonlight,XXXTENTACION,Moonlight,https://sun9-13.userapi.com/c847124/v847124569/130258/i2hUG4rtlIo.jpg,135,48
Luxor-Заново,Luxor,Заново,https://pp.userapi.com/c849120/v849120499/130d1d/jRKRgwre_eg.jpg,193,49
ЛСП х 25/17-Патрон,ЛСП х 25/17,Патрон,https://pp.userapi.com/c849320/v849320550/12bd0a/BmRnB2zeLfo.jpg,210,50
