,artist,artwork,id,length,pos_3-3-2019,title
0,Тима Белорусских,background-image:url(https://pp.userapi.com/c850636/v850636822/9b76c/UHRSLoYXvYI.jpg),Тима Белорусских-Витаминка,176,1,Витаминка
1,Artik & Asti feat. Артем Качер,background-image:url(https://pp.userapi.com/c845124/v845124800/1a20f0/om5XZpuL-bk.jpg),Artik & Asti feat. Артем Качер-Грустный дэнс,217,2,Грустный дэнс
2,"Raim, Artur, Adil",background-image:url(https://pp.userapi.com/c848532/v848532919/13e07f/lYcdBk0MwB0.jpg),"Raim, Artur, Adil-Симпа",151,3,Симпа
3,FACE,background-image:url(https://pp.userapi.com/c845122/v845122942/19f2fe/AbTKLGQcy50.jpg),FACE-ЮМОРИСТ ,143,4,ЮМОРИСТ 
4,LIRANOV,background-image:url(https://pp.userapi.com/c852036/v852036965/61910/2JXG66VEL88.jpg),LIRANOV-Гюрза,213,5,Гюрза
5,Тима Белорусских,background-image:url(https://pp.userapi.com/c850636/v850636822/9b76c/UHRSLoYXvYI.jpg),Тима Белорусских-Я больше не напишу,191,6,Я больше не напишу
6,FACE,background-image:url(https://pp.userapi.com/c845218/v845218888/182681/Al6XrhpJYn0.jpg),FACE-МОЙ КАЛАШНИКОВ,148,7,МОЙ КАЛАШНИКОВ
7,Zivert,background-image:url(https://pp.userapi.com/c831108/v831108007/1d147f/3lrCo5d1VoE.jpg),Zivert-Life,188,8,Life
8,GAYAZOV$ BROTHER$,background-image:url(https://pp.userapi.com/c850228/v850228754/d3b38/_r-05p71icU.jpg),GAYAZOV$ BROTHER$-До встречи на танцполе,205,9,До встречи на танцполе
9,Тима Белорусских,background-image:url(https://pp.userapi.com/c847019/v847019740/10ed70/Uxq8X31szn0.jpg),Тима Белорусских-Незабудка,184,10,Незабудка
10,"T1One, Inur",background-image:url(https://sun6-2.userapi.com/c851336/v851336399/470fe/zIT83dpMHgQ.jpg),"T1One, Inur-Почему так больно",187,11,Почему так больно
11,Леша Свик,background-image:url(https://pp.userapi.com/c851216/v851216811/9ee3d/phD8Oywi68k.jpg),Леша Свик-Стерва,168,12,Стерва
12,IVAN VALEEV,background-image:url(https://pp.userapi.com/c852320/v852320051/b8880/UtpsMyqIZs4.jpg),IVAN VALEEV-Седая ночь,200,13,Седая ночь
13,"Ramil', Ханза",background-image:url(https://pp.userapi.com/c844416/v844416034/1935a8/flW-6NGCY4g.jpg),"Ramil', Ханза-Айбала",192,14,Айбала
14,V $ X V PRiNCE,background-image:url(https://pp.userapi.com/c850636/v850636992/4c374/hoRZv03vlBA.jpg),V $ X V PRiNCE-На лету,201,15,На лету
15,Cali,background-image:url(https://pp.userapi.com/c849032/v849032986/dbd82/D2a5PqWjeBw.jpg),Cali-Взять взять,218,16,Взять взять
16,#2Маши,background-image:url(https://pp.userapi.com/c845019/v845019563/13be13/Sq40EoNvKDw.jpg),#2Маши-Мама я танцую,252,17,Мама я танцую
17,Егор Крид,background-image:url(https://pp.userapi.com/c851032/v851032712/b2455/ePhHin15FqA.jpg),Егор Крид-Время не пришло,196,18,Время не пришло
18,LIZER,background-image:url(https://pp.userapi.com/c851236/v851236057/6e21d/GyPW1wY9_Kk.jpg),LIZER-Корабли,175,19,Корабли
19,Ramil',background-image:url(https://pp.userapi.com/c850136/v850136195/c2a14/rZevNQYHGgg.jpg),Ramil'-Хочешь со мной,174,20,Хочешь со мной
20,Тима Белорусских,background-image:url(https://pp.userapi.com/c844416/v844416331/e1fbc/HlOhBqt35V4.jpg),Тима Белорусских-Мокрые кроссы,197,21,Мокрые кроссы
21,Нурминский,background-image:url(https://pp.userapi.com/c845322/v845322524/1b2730/ZGsbxDrIGF0.jpg),Нурминский-Уйду с мыслями,181,22,Уйду с мыслями
22,Rauf & Faik,background-image:url(https://pp.userapi.com/c849228/v849228123/84d5a/bEdHkE_krok.jpg),Rauf & Faik-Детство,188,23,Детство
23,Мальбэк х Сюзанна,background-image:url(https://pp.userapi.com/c846416/v846416528/19ef38/YsQGDM4uLYg.jpg),Мальбэк х Сюзанна-Высота,203,24,Высота
24,KAZKA,background-image:url(https://pp.userapi.com/c849024/v849024582/de2fb/9EiTzfxLPIg.jpg),KAZKA-ПЛАКАЛА,225,25,ПЛАКАЛА
25,Andro,background-image:url(https://pp.userapi.com/c848416/v848416103/119f51/Uw0UEjAcRIg.jpg),Andro-Инопланетянин,195,26,Инопланетянин
26,Strange,background-image:url(https://pp.userapi.com/c846324/v846324894/15d76b/qqIiybIadfw.jpg),Strange-Зависай,202,27,Зависай
27,"Гуф, Мари Краймбрери",background-image:url(https://pp.userapi.com/c847218/v847218663/198557/bG2zYpqjlfw.jpg),"Гуф, Мари Краймбрери-31 февраля",217,28,31 февраля
28,Дима Билан,background-image:url(https://pp.userapi.com/c851436/v851436543/379f3/CapYtZkEICY.jpg),Дима Билан-Молния,181,29,Молния
29,Big Baby Tape,background-image:url(https://pp.userapi.com/c849228/v849228340/c2ddd/uB29IJoxCHY.jpg),Big Baby Tape-Gimme The Loot,140,30,Gimme The Loot
30,Ханна,background-image:url(https://pp.userapi.com/c849236/v849236037/1242e8/Nah_ex7HXiQ.jpg),Ханна-Поговори со мной,188,31,Поговори со мной
31,JONY,background-image:url(https://sun6-6.userapi.com/c849236/v849236910/103919/7wcM5bhK1jQ.jpg),JONY-Звезда,160,32,Звезда
32,Tenca,background-image:url(https://pp.userapi.com/c850536/v850536074/7a334/eZKNacZnMSY.jpg),Tenca-Лев,186,33,Лев
33,GAYAZOV$ BROTHER$,background-image:url(https://pp.userapi.com/c846524/v846524638/102590/qw1z5duB19Y.jpg),GAYAZOV$ BROTHER$-Кредо,202,34,Кредо
34,Тима Белорусских,background-image:url(https://pp.userapi.com/c850636/v850636822/9b76c/UHRSLoYXvYI.jpg),Тима Белорусских-Мальчик бабл-гам,180,35,Мальчик бабл-гам
35,Звонкий,background-image:url(https://pp.userapi.com/c848736/v848736331/978bf/w0HLJhTRtsQ.jpg),Звонкий-Голоса,206,36,Голоса
36,Ганвест,background-image:url(https://pp.userapi.com/c824500/v824500799/19ba73/PlP-yj36Ywg.jpg),Ганвест-Никотин,207,37,Никотин
37,"LXE, Kavabanga Depo Kolibri",background-image:url(https://pp.userapi.com/c846217/v846217178/1aec00/P4BRXfA8U-Y.jpg),"LXE, Kavabanga Depo Kolibri-Дикий кайф",233,38,Дикий кайф
38,Zivert,background-image:url(https://pp.userapi.com/c845124/v845124633/133b64/pS8goMW4yck.jpg),Zivert-Зелёные волны,223,39,Зелёные волны
39,Ariana Grande,background-image:url(https://pp.userapi.com/c849132/v849132808/1232c9/YlOz8xl3cYo.jpg),Ariana Grande-7 rings,178,40,7 rings
40,ЛСП х 25/17,background-image:url(https://pp.userapi.com/c849320/v849320550/12bd0a/BmRnB2zeLfo.jpg),ЛСП х 25/17-Патрон,210,41,Патрон
41,XXXTENTACION,background-image:url(https://pp.userapi.com/c847124/v847124569/130258/i2hUG4rtlIo.jpg),XXXTENTACION-Moonlight,135,42,Moonlight
42,Нурминский,background-image:url(https://pp.userapi.com/c851136/v851136312/5dc9c/8xNSNSasMFI.jpg),Нурминский-Ауфф,182,43,Ауфф
43,CYGO,background-image:url(https://pp.userapi.com/c831409/v831409142/1ad3e9/_3-4V-r9NQU.jpg),CYGO-Panda E,180,44,Panda E
44,"Deesmi, Onlife",background-image:url(https://pp.userapi.com/c845523/v845523922/193755/kEgLYj5y6jU.jpg),"Deesmi, Onlife-Влюбился в неё",236,45,Влюбился в неё
45,Maruv,background-image:url(https://pp.userapi.com/c849232/v849232426/12a432/Oq-BMdmVY_E.jpg),Maruv-Siren Song,171,46,Siren Song
46,Ramil',background-image:url(https://pp.userapi.com/c848616/v848616375/11c250/h8yNK4756mY.jpg),Ramil'-Пускай по венам соль,184,47,Пускай по венам соль
47,Gaullin,background-image:url(https://pp.userapi.com/c830308/v830308225/177399/NmBJ438kiK8.jpg),Gaullin-Moonlight,173,48,Moonlight
48,Леша Свик,background-image:url(https://pp.userapi.com/c831108/v831108198/12aa2e/J0A3dGK-jac.jpg),Леша Свик-Малиновый свет,187,49,Малиновый свет
49,kavabanga Depo kolibri,background-image:url(https://pp.userapi.com/c852228/v852228517/b652f/mtVg4c7lI0s.jpg),kavabanga Depo kolibri-Март,188,50,Март
